{
	"id": "643fc0ad-8ef8-4e09-889d-0787357dfa60",
	"name": "Laravel Movie DB",
	"values": [
		{
			"key": "api_url",
			"value": "YOUR_URL/api/v1",
			"enabled": true
		}
	],
	"_postman_variable_scope": "environment",
	"_postman_exported_at": "2021-07-06T02:07:34.153Z",
	"_postman_exported_using": "Postman/8.7.0"
}